[
  {
    "model": "shopapp.order",
    "pk": 1,
    "fields": {
      "delivery_address": "ul chalenko, d 17/1",
      "promocode": "SALE123",
      "created_at": "2023-02-09T17:12:41.192Z",
      "user": 1,
      "products": [
        2,
        1,
        3
      ]
    }
  },
  {
    "model": "shopapp.order",
    "pk": 5,
    "fields": {
      "delivery_address": "ul.lizukova 13",
      "promocode": "dad123",
      "created_at": "2023-03-06T08:35:29.148Z",
      "user": 1,
      "products": [
        3
      ]
    }
  },
  {
    "model": "shopapp.order",
    "pk": 8,
    "fields": {
      "delivery_address": "ul. Izvilstaya 11",
      "promocode": "Promo",
      "created_at": "2023-03-06T11:35:50.340Z",
      "user": 1,
      "products": [
        1
      ]
    }
  },
  {
    "model": "shopapp.order",
    "pk": 9,
    "fields": {
      "delivery_address": "stabilnaya 21",
      "promocode": "sale123",
      "created_at": "2023-03-13T11:32:22.714Z",
      "user": 1,
      "products": [
        5
      ]
    }
  }
]
