[
  {
    "model": "auth.user",
    "pk": 1,
    "fields": {
      "password": "pbkdf2_sha256$390000$FKsmAyQIlswjXQghrCVUWC$b85bV5amwYH5tdNjDd19ZR95zoRLslMqQvaYexKwSbk=",
      "last_login": "2023-06-19T08:52:58.046Z",
      "is_superuser": true,
      "username": "admin",
      "first_name": "",
      "last_name": "",
      "email": "",
      "is_staff": true,
      "is_active": true,
      "date_joined": "2023-02-09T16:24:06.927Z",
      "groups": [],
      "user_permissions": []
    }
  },
  {
    "model": "auth.user",
    "pk": 5,
    "fields": {
      "password": "pbkdf2_sha256$390000$MSyIhICchxCMhaCoe9g0eI$fAPmEl0xloMj39KZGTRMJ1oVI5hJ66KvuXO6WCdhJkw=",
      "last_login": "2023-06-19T08:05:53Z",
      "is_superuser": false,
      "username": "Sam",
      "first_name": "",
      "last_name": "",
      "email": "",
      "is_staff": false,
      "is_active": true,
      "date_joined": "2023-06-19T08:05:53Z",
      "groups": [],
      "user_permissions": [
        29,
        30,
        31,
        32,
        25,
        26,
        27,
        28
      ]
    }
  },
  {
    "model": "auth.user",
    "pk": 6,
    "fields": {
      "password": "pbkdf2_sha256$390000$yTRmnhxRtJoCbcp51W0ZJw$2xXZBj6nG6amEkGuy5FVqas3X7BlZuwzbTWPefJGMQ4=",
      "last_login": "2023-06-19T08:52:30.627Z",
      "is_superuser": false,
      "username": "bob",
      "first_name": "",
      "last_name": "",
      "email": "",
      "is_staff": false,
      "is_active": true,
      "date_joined": "2023-06-19T08:07:44.585Z",
      "groups": [],
      "user_permissions": []
    }
  },
  {
    "model": "auth.user",
    "pk": 7,
    "fields": {
      "password": "pbkdf2_sha256$390000$lDIGe8rKO5JNQn11fzqgOV$ypXGSzwvV0OL8Ys77TcHFafjPtW81yHV0wW8c0xihAc=",
      "last_login": "2023-06-19T08:10:36.333Z",
      "is_superuser": true,
      "username": "bill",
      "first_name": "",
      "last_name": "",
      "email": "",
      "is_staff": true,
      "is_active": true,
      "date_joined": "2023-06-19T08:09:09Z",
      "groups": [],
      "user_permissions": []
    }
  }
]
